*** Life<FredkinCell> 6x9 ***

Generation = 0, Population = 8.
---------
-----0---
--------0
0----00--
-------0-
0----0---

Generation = 4, Population = 17.
-------00
01-------
----1-1--
01--31--3
---0-----
002-1-3--

*** Life<FredkinCell> 6x8 ***

Generation = 0, Population = 11.
-0------
-0-00---
0-----0-
-0--0---
-0------
--0----0

*** Life<FredkinCell> 6x8 ***

Generation = 0, Population = 9.
-0------
--------
0--00---
-0------
0--0--00
--------

*** Life<FredkinCell> 6x5 ***

Generation = 0, Population = 12.
---0-
0-000
--0--
--00-
-0-0-
0-0--

Generation = 4, Population = 12.
-02--
----1
1--11
--120
---4-
--0-2

Generation = 8, Population = 12.
-4---
1----
33235
---2-
-02--
---22

*** Life<FredkinCell> 7x7 ***

Generation = 0, Population = 17.
--00-0-
--0----
--00---
-0---0-
000000-
------0
----0-0

*** Life<FredkinCell> 8x7 ***

Generation = 0, Population = 12.
---00--
------0
0------
0------
-0-----
-0--0-0
---0---
-0----0

Generation = 1, Population = 25.
--01100
0--000-
10----0
1------
-10-0-0
010----
--0----
0-00-0-

Generation = 2, Population = 29.
0012211
1---1-0
21000--
200-0--
0------
12100-0
-----0-
---1--0

Generation = 3, Population = 27.
----3--
-0-0-01
321-100
31-010-
-1-0--0
----10-
000---0
--0-0--

Generation = 4, Population = 24.
-0----1
-10----
--2----
-20-2-0
-2-100-
1-1-210
1--0---
0-1--00

Generation = 5, Population = 27.
01---1-
1--0--1
-2-01-0
3--030-
-3-2--0
22---21
-00----
1---011

*** Life<FredkinCell> 9x8 ***

Generation = 0, Population = 13.
--------
0---0---
-000----
--0-----
-----0--
0-0-----
-------0
----0-00
--------

Generation = 5, Population = 32.
-3-3--0-
3020--0-
351--22-
30-0---1
----0--2
-020----
-1---2-2
---2-1-3
0--0-2-4

*** Life<FredkinCell> 9x7 ***

Generation = 0, Population = 13.
---0---
-------
--0-0--
--0--0-
0-0----
0-0--0-
-0-----
---0---
0------

*** Life<FredkinCell> 10x8 ***

Generation = 0, Population = 8.
-------0
--------
------0-
-------0
0-------
-------0
--------
-------0
------0-
---0----

*** Life<FredkinCell> 5x6 ***

Generation = 0, Population = 12.
-0----
--0--0
00-00-
0--000
0-----

*** Life<FredkinCell> 10x8 ***

Generation = 0, Population = 16.
-0--00--
--------
--0----0
--0----0
0-------
00------
-0-0----
-----0--
---0--00
--------

Generation = 1, Population = 40.
0-00110-
-00-00-0
-010--01
0010--01
1-0----0
--00----
-1--00--
-0--0--0
--0-0-11
---0--00

Generation = 2, Population = 33.
-0--221-
--1----1
-1-----2
-1--00-2
20-0---1
0--1-0-0
02---100
01-0---1
---01--2
-----0--

*** Life<FredkinCell> 10x10 ***

Generation = 0, Population = 12.
----------
------00--
--------0-
0---------
0----0----
----------
-00---0---
----------
----0----0
-----0----

*** Life<FredkinCell> 5x10 ***

Generation = 0, Population = 15.
00-----0--
---00-0---
----0---0-
-------000
00---0---0

Generation = 6, Population = 28.
-2-1--1031
-1-401--10
21---11--2
01--53--2-
-4-0-10-24

*** Life<FredkinCell> 6x10 ***

Generation = 0, Population = 13.
--0-0-----
-----0----
-------000
-00--0---0
--0----0--
---0------

Generation = 5, Population = 25.
-------101
0--3-3-2--
0-22-12--1
41-----20-
3---1--3--
-23-0--2-1

*** Life<FredkinCell> 10x7 ***

Generation = 0, Population = 8.
-------
0--0---
0------
------0
-------
-0-----
-------
---00--
-------
----0--

*** Life<FredkinCell> 10x10 ***

Generation = 0, Population = 8.
-----0----
----------
-------0--
---0------
----------
------0---
----------
--0-0-----
-0--------
-----0----

*** Life<FredkinCell> 10x5 ***

Generation = 0, Population = 17.
-00-0
-----
----0
-00--
--0-0
-0---
00-00
0----
--0--
00---

*** Life<FredkinCell> 9x7 ***

Generation = 0, Population = 11.
---0---
0------
---0---
----0-0
0------
--0----
-0----0
--0--0-
-------

*** Life<FredkinCell> 8x10 ***

Generation = 0, Population = 10.
----------
0---------
-------0--
---------0
--00------
---00----0
----------
--0--0----

*** Life<FredkinCell> 5x9 ***

Generation = 0, Population = 5.
-------0-
--0------
--0------
---------
------00-

*** Life<FredkinCell> 8x10 ***

Generation = 0, Population = 15.
00-00-----
------0-00
-----0----
----------
------0---
---0------
----0----0
-0--0-0---

*** Life<FredkinCell> 10x5 ***

Generation = 0, Population = 5.
-----
-0---
-----
---0-
-----
----0
---0-
-----
-0---
-----

*** Life<FredkinCell> 9x5 ***

Generation = 0, Population = 13.
0---0
-00--
0-0--
-0-0-
0---0
-----
---0-
0--0-
-----

*** Life<FredkinCell> 9x9 ***

Generation = 0, Population = 9.
-0-0--0--
---------
-----0---
---------
------0--
-----0---
------0--
---0-----
-------0-

Generation = 1, Population = 24.
0---00-0-
-0-0-00--
----0-0--
-----00--
-------0-
----0-0--
---0---0-
--0-0-00-
---0--0-0

Generation = 2, Population = 19.
----1-0-0
---------
-0-----0-
-----1---
----000-0
-------0-
----0-010
-0-------
-----010-

Generation = 3, Population = 39.
---0-----
-0--0-000
0-0--00-0
-0---2-00
---01110-
-----0010
-0-0--121
0-0-00--0
-0--01-10

Generation = 4, Population = 23.
-00---000
-----0---
---0-----
---0-----
-001--210
-0-------
--0--0-32
---0---0-
---0---2-

*** Life<FredkinCell> 8x7 ***

Generation = 0, Population = 11.
-0-----
-------
---0--0
-000---
0------
------0
---0---
-00----

Generation = 3, Population = 31.
01-0-0-
---2-0-
1001-2-
1301212
10-0---
-0-2101
----0-0
-3--10-

Generation = 6, Population = 17.
-4-----
1-1-10-
-3-----
-3113--
11-----
--0----
-21---1
1------
