25

6 9
10
3 0
5 0
2 8
5 0
3 6
5 5
4 7
5 5
1 5
3 5
4 4

6 8
11
2 6
0 1
1 4
1 1
3 1
5 7
3 4
2 0
4 1
5 2
1 3
2 9

6 8
12
4 0
2 0
2 3
4 7
4 0
4 3
4 3
0 1
3 1
2 4
2 3
4 6
2 3

6 5
16
1 0
3 3
1 3
0 3
1 2
4 3
3 2
0 3
5 2
5 0
4 1
2 2
3 2
1 4
1 0
1 0
9 4

7 7
18
0 2
2 3
2 2
4 1
6 4
4 5
1 2
6 4
0 3
3 1
0 5
4 0
4 4
5 6
3 5
4 2
6 6
4 3
2 8

8 7
13
0 3
7 6
2 0
1 6
3 0
0 4
5 4
4 1
5 1
7 1
0 3
5 6
6 3
5 1

9 8
15
3 2
2 2
2 1
7 4
5 2
1 4
4 5
6 7
1 4
5 2
7 6
7 7
1 0
2 3
5 0
7 5

9 7
13
3 2
0 3
2 4
4 0
8 0
5 0
5 5
7 3
3 5
4 2
2 2
5 2
6 1
5 10

10 8
8
0 7
5 7
8 6
9 3
3 7
7 7
2 6
4 0
1 2

5 6
14
1 5
2 1
3 0
1 2
0 1
2 0
3 4
2 3
1 2
3 3
2 4
3 0
3 5
4 0
8 10

10 8
16
6 3
8 7
6 1
8 6
0 4
5 0
3 2
7 5
4 0
2 2
5 1
8 3
0 5
3 7
2 7
0 1
2 1

10 10
14
4 5
2 8
6 6
6 6
9 5
1 6
3 0
1 7
6 1
8 4
4 0
6 1
8 9
6 2
7 9

5 10
16
1 3
2 4
0 1
2 8
4 9
0 0
3 7
3 7
4 0
4 5
4 1
1 6
3 9
1 4
3 8
0 7
7 6

6 10
13
1 5
3 2
4 2
4 7
3 1
5 3
2 9
0 2
2 7
3 9
0 4
2 8
3 5
7 5

10 7
9
7 4
1 3
5 1
2 0
2 0
1 0
3 6
9 4
7 3
8 10

10 10
8
7 2
8 1
2 7
5 6
3 3
7 4
0 5
9 5
6 7

10 5
20
6 4
9 1
3 1
4 4
0 2
5 1
9 0
0 4
4 2
4 4
9 0
7 0
0 1
7 0
6 3
8 2
2 4
6 1
6 0
3 2
5 10

9 7
12
4 0
6 6
1 0
2 3
7 2
0 3
3 6
3 4
5 2
6 1
5 2
7 5
2 5

8 10
13
3 9
5 4
5 3
1 0
3 9
7 5
5 9
4 3
7 2
7 5
2 7
2 7
4 2
1 7

5 9
5
1 2
4 6
2 2
4 7
0 7
4 6

8 10
16
6 4
1 6
0 1
0 0
6 9
2 5
0 1
5 3
1 9
0 4
7 1
7 4
4 6
7 6
0 3
1 8
8 10

10 5
5
6 3
8 1
5 4
1 1
3 3
5 7

9 5
20
1 1
4 0
1 2
7 0
4 4
0 4
6 3
4 0
3 1
4 4
0 4
1 1
7 0
7 3
2 2
7 0
2 2
2 0
3 3
0 0
7 8

9 9
11
8 7
0 6
8 7
7 3
0 3
4 6
5 5
0 6
2 5
0 1
6 6
4 1

8 7
12
5 6
0 1
3 1
3 1
3 3
4 0
7 2
2 3
2 6
7 1
3 2
6 3
7 3
