*** Life<ConwayCell> 10x2 ***

Generation = 0, Population = 10.
*.
*.
.*
*.
.*
.*
*.
.*
*.
.*

Generation = 5, Population = 0.
..
..
..
..
..
..
..
..
..
..

*** Life<ConwayCell> 15x1 ***

Generation = 0, Population = 12.
*
*
*
*
*
.
*
*
*
*
*
.
*
*
.

Generation = 5, Population = 0.
.
.
.
.
.
.
.
.
.
.
.
.
.
.
.

Generation = 10, Population = 0.
.
.
.
.
.
.
.
.
.
.
.
.
.
.
.

Generation = 15, Population = 0.
.
.
.
.
.
.
.
.
.
.
.
.
.
.
.

Generation = 20, Population = 0.
.
.
.
.
.
.
.
.
.
.
.
.
.
.
.

Generation = 25, Population = 0.
.
.
.
.
.
.
.
.
.
.
.
.
.
.
.

Generation = 30, Population = 0.
.
.
.
.
.
.
.
.
.
.
.
.
.
.
.

Generation = 35, Population = 0.
.
.
.
.
.
.
.
.
.
.
.
.
.
.
.

Generation = 40, Population = 0.
.
.
.
.
.
.
.
.
.
.
.
.
.
.
.

*** Life<ConwayCell> 7x5 ***

Generation = 0, Population = 14.
**..*
.**..
****.
.....
.*..*
.*...
*.*..

Generation = 2, Population = 11.
.*...
*.*..
.....
.....
*.*..
***..
***..

Generation = 4, Population = 2.
.....
.....
.....
.....
.....
..**.
.....

Generation = 6, Population = 0.
.....
.....
.....
.....
.....
.....
.....

Generation = 8, Population = 0.
.....
.....
.....
.....
.....
.....
.....

Generation = 10, Population = 0.
.....
.....
.....
.....
.....
.....
.....

Generation = 12, Population = 0.
.....
.....
.....
.....
.....
.....
.....

Generation = 14, Population = 0.
.....
.....
.....
.....
.....
.....
.....

Generation = 16, Population = 0.
.....
.....
.....
.....
.....
.....
.....

Generation = 18, Population = 0.
.....
.....
.....
.....
.....
.....
.....

Generation = 20, Population = 0.
.....
.....
.....
.....
.....
.....
.....

Generation = 22, Population = 0.
.....
.....
.....
.....
.....
.....
.....

Generation = 24, Population = 0.
.....
.....
.....
.....
.....
.....
.....

Generation = 26, Population = 0.
.....
.....
.....
.....
.....
.....
.....

Generation = 28, Population = 0.
.....
.....
.....
.....
.....
.....
.....

*** Life<ConwayCell> 5x4 ***

Generation = 0, Population = 10.
***.
....
*.*.
**..
***.

Generation = 3, Population = 4.
....
**..
**..
....
....

Generation = 6, Population = 4.
....
**..
**..
....
....

Generation = 9, Population = 4.
....
**..
**..
....
....

Generation = 12, Population = 4.
....
**..
**..
....
....

Generation = 15, Population = 4.
....
**..
**..
....
....

Generation = 18, Population = 4.
....
**..
**..
....
....

Generation = 21, Population = 4.
....
**..
**..
....
....

Generation = 24, Population = 4.
....
**..
**..
....
....

Generation = 27, Population = 4.
....
**..
**..
....
....

Generation = 30, Population = 4.
....
**..
**..
....
....

Generation = 33, Population = 4.
....
**..
**..
....
....

Generation = 36, Population = 4.
....
**..
**..
....
....

Generation = 39, Population = 4.
....
**..
**..
....
....

Generation = 42, Population = 4.
....
**..
**..
....
....

Generation = 45, Population = 4.
....
**..
**..
....
....

Generation = 48, Population = 4.
....
**..
**..
....
....

*** Life<ConwayCell> 15x19 ***

Generation = 0, Population = 16.
.*.................
...................
........*..........
..**...*...........
.............*.....
...................
........*..........
..*......*.**......
*..................
.*.................
.................*.
...................
...................
.........*.........
..............*....

Generation = 3, Population = 0.
...................
...................
...................
...................
...................
...................
...................
...................
...................
...................
...................
...................
...................
...................
...................

Generation = 6, Population = 0.
...................
...................
...................
...................
...................
...................
...................
...................
...................
...................
...................
...................
...................
...................
...................

Generation = 9, Population = 0.
...................
...................
...................
...................
...................
...................
...................
...................
...................
...................
...................
...................
...................
...................
...................

Generation = 12, Population = 0.
...................
...................
...................
...................
...................
...................
...................
...................
...................
...................
...................
...................
...................
...................
...................

Generation = 15, Population = 0.
...................
...................
...................
...................
...................
...................
...................
...................
...................
...................
...................
...................
...................
...................
...................

Generation = 18, Population = 0.
...................
...................
...................
...................
...................
...................
...................
...................
...................
...................
...................
...................
...................
...................
...................

Generation = 21, Population = 0.
...................
...................
...................
...................
...................
...................
...................
...................
...................
...................
...................
...................
...................
...................
...................

Generation = 24, Population = 0.
...................
...................
...................
...................
...................
...................
...................
...................
...................
...................
...................
...................
...................
...................
...................

Generation = 27, Population = 0.
...................
...................
...................
...................
...................
...................
...................
...................
...................
...................
...................
...................
...................
...................
...................

Generation = 30, Population = 0.
...................
...................
...................
...................
...................
...................
...................
...................
...................
...................
...................
...................
...................
...................
...................

Generation = 33, Population = 0.
...................
...................
...................
...................
...................
...................
...................
...................
...................
...................
...................
...................
...................
...................
...................

*** Life<ConwayCell> 6x15 ***

Generation = 0, Population = 14.
...*........*.*
...............
.....*.......*.
..*.....*......
.***.........*.
.*..*..*.......

Generation = 4, Population = 9.
...............
...............
.***...........
*...*..........
**.**..........
...............

Generation = 8, Population = 15.
..*............
.***...........
**.**..........
*...**.........
**.**..........
...............

Generation = 12, Population = 10.
...............
.*...*.........
.....**........
......**.......
....*.*........
....**.........

Generation = 16, Population = 16.
...............
....****.......
.......**......
...*..*.**.....
...**.*.*......
.....*.*.......

Generation = 20, Population = 13.
...............
.........*.....
.......****....
......*...**...
......**..*....
........**.....

Generation = 24, Population = 22.
...............
........*.**...
......***.***..
.....*..*...**.
.....*****..*..
......*...**...

Generation = 28, Population = 16.
...............
..........***..
..........*.*.*
....**........*
...*........*.*
....**......**.

*** Life<ConwayCell> 9x1 ***

Generation = 0, Population = 8.
*
*
.
*
*
*
*
*
*

Generation = 2, Population = 2.
.
.
.
.
.
*
*
.
.

Generation = 4, Population = 0.
.
.
.
.
.
.
.
.
.

Generation = 6, Population = 0.
.
.
.
.
.
.
.
.
.

Generation = 8, Population = 0.
.
.
.
.
.
.
.
.
.

Generation = 10, Population = 0.
.
.
.
.
.
.
.
.
.

Generation = 12, Population = 0.
.
.
.
.
.
.
.
.
.

*** Life<ConwayCell> 17x3 ***

Generation = 0, Population = 16.
..*
...
*..
...
.*.
.*.
*.*
**.
*..
.**
**.
**.
...
.*.
...
...
...

Generation = 1, Population = 13.
...
...
...
...
...
***
*.*
*..
*.*
..*
...
**.
**.
...
...
...
...

Generation = 2, Population = 12.
...
...
...
...
.*.
*.*
*.*
*..
...
.*.
.*.
**.
**.
...
...
...
...

Generation = 3, Population = 10.
...
...
...
...
.*.
*.*
*..
.*.
...
...
.**
..*
**.
...
...
...
...

Generation = 4, Population = 8.
...
...
...
...
.*.
*..
*..
...
...
...
.**
*.*
.*.
...
...
...
...

Generation = 5, Population = 7.
...
...
...
...
...
**.
...
...
...
...
.**
*.*
.*.
...
...
...
...

Generation = 6, Population = 5.
...
...
...
...
...
...
...
...
...
...
.**
*.*
.*.
...
...
...
...

Generation = 7, Population = 5.
...
...
...
...
...
...
...
...
...
...
.**
*.*
.*.
...
...
...
...

Generation = 8, Population = 5.
...
...
...
...
...
...
...
...
...
...
.**
*.*
.*.
...
...
...
...

Generation = 9, Population = 5.
...
...
...
...
...
...
...
...
...
...
.**
*.*
.*.
...
...
...
...

Generation = 10, Population = 5.
...
...
...
...
...
...
...
...
...
...
.**
*.*
.*.
...
...
...
...

Generation = 11, Population = 5.
...
...
...
...
...
...
...
...
...
...
.**
*.*
.*.
...
...
...
...

Generation = 12, Population = 5.
...
...
...
...
...
...
...
...
...
...
.**
*.*
.*.
...
...
...
...

Generation = 13, Population = 5.
...
...
...
...
...
...
...
...
...
...
.**
*.*
.*.
...
...
...
...

Generation = 14, Population = 5.
...
...
...
...
...
...
...
...
...
...
.**
*.*
.*.
...
...
...
...

Generation = 15, Population = 5.
...
...
...
...
...
...
...
...
...
...
.**
*.*
.*.
...
...
...
...

Generation = 16, Population = 5.
...
...
...
...
...
...
...
...
...
...
.**
*.*
.*.
...
...
...
...

Generation = 17, Population = 5.
...
...
...
...
...
...
...
...
...
...
.**
*.*
.*.
...
...
...
...

Generation = 18, Population = 5.
...
...
...
...
...
...
...
...
...
...
.**
*.*
.*.
...
...
...
...

Generation = 19, Population = 5.
...
...
...
...
...
...
...
...
...
...
.**
*.*
.*.
...
...
...
...

*** Life<ConwayCell> 6x17 ***

Generation = 0, Population = 17.
**...........*...
.*..........*.*..
..*.....*...*....
.*...*........*..
........*.....*..
.......*.*.....*.

Generation = 5, Population = 0.
.................
.................
.................
.................
.................
.................

Generation = 10, Population = 0.
.................
.................
.................
.................
.................
.................

Generation = 15, Population = 0.
.................
.................
.................
.................
.................
.................

Generation = 20, Population = 0.
.................
.................
.................
.................
.................
.................

*** Life<ConwayCell> 18x2 ***

Generation = 0, Population = 15.
*.
.*
.*
..
.*
**
..
.*
.*
.*
*.
..
**
..
**
..
..
*.

Generation = 4, Population = 4.
..
..
..
..
..
..
..
..
**
**
..
..
..
..
..
..
..
..

*** Life<ConwayCell> 17x4 ***

Generation = 0, Population = 15.
*...
....
.*..
.*..
*...
....
*..*
....
....
..*.
....
**..
...*
...*
....
..**
*.*.

*** Life<ConwayCell> 19x12 ***

Generation = 0, Population = 17.
.....*.....*
............
........*...
............
......*.....
...........*
.........*..
.....*......
............
...........*
...*........
.......*....
..........*.
..*...*.....
.........*..
............
....*.......
............
..........**

Generation = 1, Population = 0.
............
............
............
............
............
............
............
............
............
............
............
............
............
............
............
............
............
............
............

Generation = 2, Population = 0.
............
............
............
............
............
............
............
............
............
............
............
............
............
............
............
............
............
............
............

Generation = 3, Population = 0.
............
............
............
............
............
............
............
............
............
............
............
............
............
............
............
............
............
............
............

Generation = 4, Population = 0.
............
............
............
............
............
............
............
............
............
............
............
............
............
............
............
............
............
............
............

Generation = 5, Population = 0.
............
............
............
............
............
............
............
............
............
............
............
............
............
............
............
............
............
............
............

Generation = 6, Population = 0.
............
............
............
............
............
............
............
............
............
............
............
............
............
............
............
............
............
............
............

Generation = 7, Population = 0.
............
............
............
............
............
............
............
............
............
............
............
............
............
............
............
............
............
............
............

Generation = 8, Population = 0.
............
............
............
............
............
............
............
............
............
............
............
............
............
............
............
............
............
............
............

Generation = 9, Population = 0.
............
............
............
............
............
............
............
............
............
............
............
............
............
............
............
............
............
............
............

Generation = 10, Population = 0.
............
............
............
............
............
............
............
............
............
............
............
............
............
............
............
............
............
............
............

Generation = 11, Population = 0.
............
............
............
............
............
............
............
............
............
............
............
............
............
............
............
............
............
............
............

Generation = 12, Population = 0.
............
............
............
............
............
............
............
............
............
............
............
............
............
............
............
............
............
............
............

Generation = 13, Population = 0.
............
............
............
............
............
............
............
............
............
............
............
............
............
............
............
............
............
............
............

Generation = 14, Population = 0.
............
............
............
............
............
............
............
............
............
............
............
............
............
............
............
............
............
............
............

Generation = 15, Population = 0.
............
............
............
............
............
............
............
............
............
............
............
............
............
............
............
............
............
............
............

Generation = 16, Population = 0.
............
............
............
............
............
............
............
............
............
............
............
............
............
............
............
............
............
............
............

Generation = 17, Population = 0.
............
............
............
............
............
............
............
............
............
............
............
............
............
............
............
............
............
............
............

Generation = 18, Population = 0.
............
............
............
............
............
............
............
............
............
............
............
............
............
............
............
............
............
............
............

Generation = 19, Population = 0.
............
............
............
............
............
............
............
............
............
............
............
............
............
............
............
............
............
............
............

Generation = 20, Population = 0.
............
............
............
............
............
............
............
............
............
............
............
............
............
............
............
............
............
............
............

Generation = 21, Population = 0.
............
............
............
............
............
............
............
............
............
............
............
............
............
............
............
............
............
............
............

Generation = 22, Population = 0.
............
............
............
............
............
............
............
............
............
............
............
............
............
............
............
............
............
............
............

Generation = 23, Population = 0.
............
............
............
............
............
............
............
............
............
............
............
............
............
............
............
............
............
............
............

Generation = 24, Population = 0.
............
............
............
............
............
............
............
............
............
............
............
............
............
............
............
............
............
............
............

Generation = 25, Population = 0.
............
............
............
............
............
............
............
............
............
............
............
............
............
............
............
............
............
............
............

Generation = 26, Population = 0.
............
............
............
............
............
............
............
............
............
............
............
............
............
............
............
............
............
............
............

Generation = 27, Population = 0.
............
............
............
............
............
............
............
............
............
............
............
............
............
............
............
............
............
............
............

Generation = 28, Population = 0.
............
............
............
............
............
............
............
............
............
............
............
............
............
............
............
............
............
............
............

Generation = 29, Population = 0.
............
............
............
............
............
............
............
............
............
............
............
............
............
............
............
............
............
............
............

Generation = 30, Population = 0.
............
............
............
............
............
............
............
............
............
............
............
............
............
............
............
............
............
............
............

Generation = 31, Population = 0.
............
............
............
............
............
............
............
............
............
............
............
............
............
............
............
............
............
............
............

Generation = 32, Population = 0.
............
............
............
............
............
............
............
............
............
............
............
............
............
............
............
............
............
............
............

*** Life<ConwayCell> 11x16 ***

Generation = 0, Population = 16.
...........*....
....*..*........
....*....*....*.
..*.............
................
................
................
.*...........*..
**.*............
...*.......**...
...*............

Generation = 1, Population = 9.
................
................
...*............
................
................
................
................
***.............
**..........*...
...**...........
................

Generation = 2, Population = 5.
................
................
................
................
................
................
.*..............
*.*.............
*..*............
................
................

Generation = 3, Population = 4.
................
................
................
................
................
................
.*..............
*.*.............
.*..............
................
................

Generation = 4, Population = 4.
................
................
................
................
................
................
.*..............
*.*.............
.*..............
................
................

Generation = 5, Population = 4.
................
................
................
................
................
................
.*..............
*.*.............
.*..............
................
................

Generation = 6, Population = 4.
................
................
................
................
................
................
.*..............
*.*.............
.*..............
................
................

Generation = 7, Population = 4.
................
................
................
................
................
................
.*..............
*.*.............
.*..............
................
................

Generation = 8, Population = 4.
................
................
................
................
................
................
.*..............
*.*.............
.*..............
................
................

Generation = 9, Population = 4.
................
................
................
................
................
................
.*..............
*.*.............
.*..............
................
................

Generation = 10, Population = 4.
................
................
................
................
................
................
.*..............
*.*.............
.*..............
................
................

Generation = 11, Population = 4.
................
................
................
................
................
................
.*..............
*.*.............
.*..............
................
................

Generation = 12, Population = 4.
................
................
................
................
................
................
.*..............
*.*.............
.*..............
................
................

Generation = 13, Population = 4.
................
................
................
................
................
................
.*..............
*.*.............
.*..............
................
................

Generation = 14, Population = 4.
................
................
................
................
................
................
.*..............
*.*.............
.*..............
................
................

Generation = 15, Population = 4.
................
................
................
................
................
................
.*..............
*.*.............
.*..............
................
................

Generation = 16, Population = 4.
................
................
................
................
................
................
.*..............
*.*.............
.*..............
................
................

Generation = 17, Population = 4.
................
................
................
................
................
................
.*..............
*.*.............
.*..............
................
................

Generation = 18, Population = 4.
................
................
................
................
................
................
.*..............
*.*.............
.*..............
................
................

Generation = 19, Population = 4.
................
................
................
................
................
................
.*..............
*.*.............
.*..............
................
................

Generation = 20, Population = 4.
................
................
................
................
................
................
.*..............
*.*.............
.*..............
................
................

Generation = 21, Population = 4.
................
................
................
................
................
................
.*..............
*.*.............
.*..............
................
................

Generation = 22, Population = 4.
................
................
................
................
................
................
.*..............
*.*.............
.*..............
................
................

Generation = 23, Population = 4.
................
................
................
................
................
................
.*..............
*.*.............
.*..............
................
................

Generation = 24, Population = 4.
................
................
................
................
................
................
.*..............
*.*.............
.*..............
................
................

Generation = 25, Population = 4.
................
................
................
................
................
................
.*..............
*.*.............
.*..............
................
................

Generation = 26, Population = 4.
................
................
................
................
................
................
.*..............
*.*.............
.*..............
................
................

Generation = 27, Population = 4.
................
................
................
................
................
................
.*..............
*.*.............
.*..............
................
................

Generation = 28, Population = 4.
................
................
................
................
................
................
.*..............
*.*.............
.*..............
................
................

Generation = 29, Population = 4.
................
................
................
................
................
................
.*..............
*.*.............
.*..............
................
................

Generation = 30, Population = 4.
................
................
................
................
................
................
.*..............
*.*.............
.*..............
................
................

Generation = 31, Population = 4.
................
................
................
................
................
................
.*..............
*.*.............
.*..............
................
................

Generation = 32, Population = 4.
................
................
................
................
................
................
.*..............
*.*.............
.*..............
................
................

Generation = 33, Population = 4.
................
................
................
................
................
................
.*..............
*.*.............
.*..............
................
................

Generation = 34, Population = 4.
................
................
................
................
................
................
.*..............
*.*.............
.*..............
................
................

Generation = 35, Population = 4.
................
................
................
................
................
................
.*..............
*.*.............
.*..............
................
................

Generation = 36, Population = 4.
................
................
................
................
................
................
.*..............
*.*.............
.*..............
................
................

Generation = 37, Population = 4.
................
................
................
................
................
................
.*..............
*.*.............
.*..............
................
................

Generation = 38, Population = 4.
................
................
................
................
................
................
.*..............
*.*.............
.*..............
................
................

Generation = 39, Population = 4.
................
................
................
................
................
................
.*..............
*.*.............
.*..............
................
................

Generation = 40, Population = 4.
................
................
................
................
................
................
.*..............
*.*.............
.*..............
................
................

Generation = 41, Population = 4.
................
................
................
................
................
................
.*..............
*.*.............
.*..............
................
................

Generation = 42, Population = 4.
................
................
................
................
................
................
.*..............
*.*.............
.*..............
................
................

Generation = 43, Population = 4.
................
................
................
................
................
................
.*..............
*.*.............
.*..............
................
................

Generation = 44, Population = 4.
................
................
................
................
................
................
.*..............
*.*.............
.*..............
................
................

Generation = 45, Population = 4.
................
................
................
................
................
................
.*..............
*.*.............
.*..............
................
................

Generation = 46, Population = 4.
................
................
................
................
................
................
.*..............
*.*.............
.*..............
................
................

Generation = 47, Population = 4.
................
................
................
................
................
................
.*..............
*.*.............
.*..............
................
................

Generation = 48, Population = 4.
................
................
................
................
................
................
.*..............
*.*.............
.*..............
................
................

Generation = 49, Population = 4.
................
................
................
................
................
................
.*..............
*.*.............
.*..............
................
................

Generation = 50, Population = 4.
................
................
................
................
................
................
.*..............
*.*.............
.*..............
................
................

*** Life<ConwayCell> 18x3 ***

Generation = 0, Population = 13.
.**
...
...
...
.**
*..
...
.*.
...
...
...
*..
..*
.*.
.*.
.*.
*..
*..

Generation = 1, Population = 12.
...
...
...
...
.*.
.*.
...
...
...
...
...
...
.*.
.**
***
**.
**.
...

Generation = 2, Population = 4.
...
...
...
...
...
...
...
...
...
...
...
...
.**
...
...
...
**.
...

Generation = 3, Population = 0.
...
...
...
...
...
...
...
...
...
...
...
...
...
...
...
...
...
...

Generation = 4, Population = 0.
...
...
...
...
...
...
...
...
...
...
...
...
...
...
...
...
...
...

Generation = 5, Population = 0.
...
...
...
...
...
...
...
...
...
...
...
...
...
...
...
...
...
...

Generation = 6, Population = 0.
...
...
...
...
...
...
...
...
...
...
...
...
...
...
...
...
...
...

Generation = 7, Population = 0.
...
...
...
...
...
...
...
...
...
...
...
...
...
...
...
...
...
...

Generation = 8, Population = 0.
...
...
...
...
...
...
...
...
...
...
...
...
...
...
...
...
...
...

*** Life<ConwayCell> 11x5 ***

Generation = 0, Population = 16.
.*.*.
..*..
.....
***.*
**...
.....
*....
*....
.....
***.*
..*..

Generation = 4, Population = 17.
..*..
..**.
.*.*.
.***.
*.*..
**...
.....
.....
***..
**...
.....

Generation = 8, Population = 11.
.***.
.***.
.....
.....
.....
.....
.***.
.**..
.....
.....
.....

Generation = 12, Population = 0.
.....
.....
.....
.....
.....
.....
.....
.....
.....
.....
.....

Generation = 16, Population = 0.
.....
.....
.....
.....
.....
.....
.....
.....
.....
.....
.....

Generation = 20, Population = 0.
.....
.....
.....
.....
.....
.....
.....
.....
.....
.....
.....

*** Life<ConwayCell> 15x11 ***

Generation = 0, Population = 17.
........*..
...........
.**......*.
...*.......
...*.*.....
....*......
...........
..*........
.........*.
..*......*.
.........*.
........**.
.....*.....
...........
.....*.....

Generation = 3, Population = 14.
...........
...........
..***......
..*.*......
..***......
...........
...........
...........
.........*.
.........*.
........*.*
.........*.
.........*.
...........
...........

Generation = 6, Population = 20.
...........
..***......
.*...*.....
.*...*.....
.*...*.....
..***......
...........
...........
.........*.
........**.
.......**..
........**.
.........*.
...........
...........

Generation = 9, Population = 22.
...*.......
...*.......
...........
**...***...
...........
...*.......
...*.......
...*.......
........**.
......**.*.
......**...
......**.*.
........**.
...........
...........

Generation = 12, Population = 21.
...........
...........
......*....
......*....
......*....
...........
..***......
.......***.
......*..*.
.....*...*.
.....*.....
.....*...*.
......*..*.
.......***.
...........

Generation = 15, Population = 35.
...........
...........
...........
.....***...
...........
...*...**..
...*...***.
...*****..*
.....*...**
....**.....
...***.....
....**.....
.....*...**
......**..*
.......***.

Generation = 18, Population = 33.
...........
...........
...........
.......**..
.......**..
.........**
..**....*.*
....*..**..
.....*.*.**
.*.....*...
......**...
..*.....*..
....***..**
.....***..*
.........*.

Generation = 21, Population = 26.
...........
...........
...........
......***..
...........
.....**..*.
...**.*.*.*
...***.*.*.
...........
...........
...........
.........**
..........*
......****.
......***..

Generation = 24, Population = 29.
...........
...........
.......*...
.....****..
....*....*.
...*..****.
...*......*
...*.....*.
....*....*.
.....***...
...........
.........**
...........
.......**.*
.......***.

Generation = 27, Population = 29.
...........
...........
...........
....**...*.
...**....**
..*..*.....
.***.*....*
..**.*...**
...*.**..**
....*..*...
.....*.....
...........
...........
........*..
........*..

Generation = 30, Population = 29.
...........
...........
...**......
..*..*...*.
..*...***..
........*..
*.*.*....*.
*......**.*
..**.***.*.
..**.**....
....*......
...........
...........
...........
...........

Generation = 33, Population = 30.
...........
...........
...***.....
..*........
..*.**.....
.*....**.**
..***.***..
..**...*..*
.........*.
..*..**....
...**......
...**......
...........
...........
...........

Generation = 36, Population = 25.
...........
...**......
..**.*.....
...*.......
.*..*......
*.....**.*.
........**.
....*....*.
.**.*..*...
...***.....
...*.*.....
...........
...........
...........
...........

Generation = 39, Population = 16.
..**.......
..*.*......
..*........
...........
...........
.........**
...........
........*.*
.....*...*.
....*.*....
....*.*....
.....*.....
...........
...........
...........

*** Life<ConwayCell> 4x10 ***

Generation = 0, Population = 15.
.**..*...*
..*.*.*...
.**.***...
.**...*...

Generation = 3, Population = 16.
..*.***...
.**....*..
.**.*...*.
..****.*..

Generation = 6, Population = 14.
..******..
..*.***.*.
...*...**.
..........

*** Life<ConwayCell> 5x17 ***

Generation = 0, Population = 18.
.*.*......**.....
*..*....*......*.
..**.*.*.*.......
.....*.....**....
...*............*

Generation = 3, Population = 11.
..*......*.......
.*.*...*.*.......
.*..*....*.......
..**.............
.................

Generation = 6, Population = 14.
..*.....**.......
.*.*....***......
.*..*...**.......
..**.............
.................

Generation = 9, Population = 15.
..*.....***......
.*.*....*.*......
.*..*...***......
..**.............
.................

Generation = 12, Population = 16.
..*..............
.*.*...**.**.....
.*..*..*...*.....
..**....***......
.................

Generation = 15, Population = 17.
..*..............
.*.*...**.**.....
.*..*..*...*.....
..**...*...*.....
........*.*......

Generation = 18, Population = 22.
..*....*...*.....
.*.*.***...**....
.*..*........*...
..**.***...**....
.......*...*.....

Generation = 21, Population = 19.
..*....*...**....
.*.....*...*.*...
.*...........**..
..*....*...*.*...
..*....*...**....

Generation = 24, Population = 20.
...........***...
.**........*.**..
*..*..........**.
.**........*.**..
...........***...

Generation = 27, Population = 13.
.............*...
.**.............*
*..*.........**.*
.**.............*
.............*...

Generation = 30, Population = 15.
..............**.
.**...........**.
*..*............*
.**...........**.
..............**.

Generation = 33, Population = 15.
..............**.
.**...........*.*
*..*............*
.**...........*.*
..............**.

Generation = 36, Population = 15.
..............**.
.**...........*.*
*..*............*
.**...........*.*
..............**.

Generation = 39, Population = 15.
..............**.
.**...........*.*
*..*............*
.**...........*.*
..............**.

Generation = 42, Population = 15.
..............**.
.**...........*.*
*..*............*
.**...........*.*
..............**.

Generation = 45, Population = 15.
..............**.
.**...........*.*
*..*............*
.**...........*.*
..............**.

*** Life<ConwayCell> 7x14 ***

Generation = 0, Population = 16.
*............*
......*.**..*.
......*.......
...........*..
*......*...*..
....*..**.....
*........*....

Generation = 2, Population = 7.
..............
..............
..............
.......**.....
.......**.....
.........*....
.......**.....

Generation = 4, Population = 5.
..............
..............
..............
.......**.....
.......*.*....
.........*....
..............

Generation = 6, Population = 5.
..............
..............
..............
.......**.....
.......*.*....
........*.....
..............

Generation = 8, Population = 5.
..............
..............
..............
.......**.....
.......*.*....
........*.....
..............

Generation = 10, Population = 5.
..............
..............
..............
.......**.....
.......*.*....
........*.....
..............

Generation = 12, Population = 5.
..............
..............
..............
.......**.....
.......*.*....
........*.....
..............

Generation = 14, Population = 5.
..............
..............
..............
.......**.....
.......*.*....
........*.....
..............

Generation = 16, Population = 5.
..............
..............
..............
.......**.....
.......*.*....
........*.....
..............

Generation = 18, Population = 5.
..............
..............
..............
.......**.....
.......*.*....
........*.....
..............

Generation = 20, Population = 5.
..............
..............
..............
.......**.....
.......*.*....
........*.....
..............

Generation = 22, Population = 5.
..............
..............
..............
.......**.....
.......*.*....
........*.....
..............

Generation = 24, Population = 5.
..............
..............
..............
.......**.....
.......*.*....
........*.....
..............

Generation = 26, Population = 5.
..............
..............
..............
.......**.....
.......*.*....
........*.....
..............

*** Life<ConwayCell> 5x15 ***

Generation = 0, Population = 16.
.**.........*..
.............*.
**....*........
..*....*.**...*
**.*.......*...

Generation = 1, Population = 8.
...............
*.*............
.*.............
..*.......*....
.**.......*....

Generation = 2, Population = 6.
...............
.*.............
.**............
..*............
.**............

Generation = 3, Population = 7.
...............
.**............
.**............
...*...........
.**............

Generation = 4, Population = 6.
...............
.**............
.*.*...........
...*...........
..*............

Generation = 5, Population = 5.
...............
.**............
.*.*...........
...*...........
...............

Generation = 6, Population = 5.
...............
.**............
.*.*...........
..*............
...............

Generation = 7, Population = 5.
...............
.**............
.*.*...........
..*............
...............

Generation = 8, Population = 5.
...............
.**............
.*.*...........
..*............
...............

Generation = 9, Population = 5.
...............
.**............
.*.*...........
..*............
...............

Generation = 10, Population = 5.
...............
.**............
.*.*...........
..*............
...............

Generation = 11, Population = 5.
...............
.**............
.*.*...........
..*............
...............

Generation = 12, Population = 5.
...............
.**............
.*.*...........
..*............
...............

Generation = 13, Population = 5.
...............
.**............
.*.*...........
..*............
...............

Generation = 14, Population = 5.
...............
.**............
.*.*...........
..*............
...............

Generation = 15, Population = 5.
...............
.**............
.*.*...........
..*............
...............

Generation = 16, Population = 5.
...............
.**............
.*.*...........
..*............
...............

Generation = 17, Population = 5.
...............
.**............
.*.*...........
..*............
...............

Generation = 18, Population = 5.
...............
.**............
.*.*...........
..*............
...............

Generation = 19, Population = 5.
...............
.**............
.*.*...........
..*............
...............

Generation = 20, Population = 5.
...............
.**............
.*.*...........
..*............
...............

Generation = 21, Population = 5.
...............
.**............
.*.*...........
..*............
...............

Generation = 22, Population = 5.
...............
.**............
.*.*...........
..*............
...............

Generation = 23, Population = 5.
...............
.**............
.*.*...........
..*............
...............

Generation = 24, Population = 5.
...............
.**............
.*.*...........
..*............
...............

Generation = 25, Population = 5.
...............
.**............
.*.*...........
..*............
...............

Generation = 26, Population = 5.
...............
.**............
.*.*...........
..*............
...............

Generation = 27, Population = 5.
...............
.**............
.*.*...........
..*............
...............

Generation = 28, Population = 5.
...............
.**............
.*.*...........
..*............
...............

Generation = 29, Population = 5.
...............
.**............
.*.*...........
..*............
...............

Generation = 30, Population = 5.
...............
.**............
.*.*...........
..*............
...............

Generation = 31, Population = 5.
...............
.**............
.*.*...........
..*............
...............

Generation = 32, Population = 5.
...............
.**............
.*.*...........
..*............
...............

Generation = 33, Population = 5.
...............
.**............
.*.*...........
..*............
...............

Generation = 34, Population = 5.
...............
.**............
.*.*...........
..*............
...............

Generation = 35, Population = 5.
...............
.**............
.*.*...........
..*............
...............

Generation = 36, Population = 5.
...............
.**............
.*.*...........
..*............
...............

Generation = 37, Population = 5.
...............
.**............
.*.*...........
..*............
...............

Generation = 38, Population = 5.
...............
.**............
.*.*...........
..*............
...............

Generation = 39, Population = 5.
...............
.**............
.*.*...........
..*............
...............

Generation = 40, Population = 5.
...............
.**............
.*.*...........
..*............
...............

Generation = 41, Population = 5.
...............
.**............
.*.*...........
..*............
...............

Generation = 42, Population = 5.
...............
.**............
.*.*...........
..*............
...............

Generation = 43, Population = 5.
...............
.**............
.*.*...........
..*............
...............

Generation = 44, Population = 5.
...............
.**............
.*.*...........
..*............
...............

Generation = 45, Population = 5.
...............
.**............
.*.*...........
..*............
...............

Generation = 46, Population = 5.
...............
.**............
.*.*...........
..*............
...............

Generation = 47, Population = 5.
...............
.**............
.*.*...........
..*............
...............

Generation = 48, Population = 5.
...............
.**............
.*.*...........
..*............
...............

*** Life<ConwayCell> 6x5 ***

Generation = 0, Population = 11.
.*..*
*..*.
...**
**...
..*.*
*....

Generation = 4, Population = 0.
.....
.....
.....
.....
.....
.....

Generation = 8, Population = 0.
.....
.....
.....
.....
.....
.....

*** Life<ConwayCell> 16x17 ***

Generation = 0, Population = 18.
.............*...
..............*..
.................
...............*.
.................
.*.*............*
.................
.*...............
..........*......
.**...*.....*..*.
....*.....*......
..........*......
.................
....*............
.................
.............*...

Generation = 4, Population = 0.
.................
.................
.................
.................
.................
.................
.................
.................
.................
.................
.................
.................
.................
.................
.................
.................

Generation = 8, Population = 0.
.................
.................
.................
.................
.................
.................
.................
.................
.................
.................
.................
.................
.................
.................
.................
.................

Generation = 12, Population = 0.
.................
.................
.................
.................
.................
.................
.................
.................
.................
.................
.................
.................
.................
.................
.................
.................

Generation = 16, Population = 0.
.................
.................
.................
.................
.................
.................
.................
.................
.................
.................
.................
.................
.................
.................
.................
.................

Generation = 20, Population = 0.
.................
.................
.................
.................
.................
.................
.................
.................
.................
.................
.................
.................
.................
.................
.................
.................

Generation = 24, Population = 0.
.................
.................
.................
.................
.................
.................
.................
.................
.................
.................
.................
.................
.................
.................
.................
.................

Generation = 28, Population = 0.
.................
.................
.................
.................
.................
.................
.................
.................
.................
.................
.................
.................
.................
.................
.................
.................

*** Life<ConwayCell> 17x2 ***

Generation = 0, Population = 14.
*.
**
*.
..
*.
..
..
.*
.*
..
**
.*
.*
*.
..
**
..

Generation = 1, Population = 15.
**
**
**
..
..
..
..
..
..
**
**
.*
**
..
**
..
..

Generation = 2, Population = 8.
**
..
**
..
..
..
..
..
..
**
..
..
**
..
..
..
..

Generation = 3, Population = 0.
..
..
..
..
..
..
..
..
..
..
..
..
..
..
..
..
..

Generation = 4, Population = 0.
..
..
..
..
..
..
..
..
..
..
..
..
..
..
..
..
..

Generation = 5, Population = 0.
..
..
..
..
..
..
..
..
..
..
..
..
..
..
..
..
..

Generation = 6, Population = 0.
..
..
..
..
..
..
..
..
..
..
..
..
..
..
..
..
..

Generation = 7, Population = 0.
..
..
..
..
..
..
..
..
..
..
..
..
..
..
..
..
..

Generation = 8, Population = 0.
..
..
..
..
..
..
..
..
..
..
..
..
..
..
..
..
..

Generation = 9, Population = 0.
..
..
..
..
..
..
..
..
..
..
..
..
..
..
..
..
..

Generation = 10, Population = 0.
..
..
..
..
..
..
..
..
..
..
..
..
..
..
..
..
..

Generation = 11, Population = 0.
..
..
..
..
..
..
..
..
..
..
..
..
..
..
..
..
..

Generation = 12, Population = 0.
..
..
..
..
..
..
..
..
..
..
..
..
..
..
..
..
..

Generation = 13, Population = 0.
..
..
..
..
..
..
..
..
..
..
..
..
..
..
..
..
..

Generation = 14, Population = 0.
..
..
..
..
..
..
..
..
..
..
..
..
..
..
..
..
..

Generation = 15, Population = 0.
..
..
..
..
..
..
..
..
..
..
..
..
..
..
..
..
..

Generation = 16, Population = 0.
..
..
..
..
..
..
..
..
..
..
..
..
..
..
..
..
..

Generation = 17, Population = 0.
..
..
..
..
..
..
..
..
..
..
..
..
..
..
..
..
..

Generation = 18, Population = 0.
..
..
..
..
..
..
..
..
..
..
..
..
..
..
..
..
..

Generation = 19, Population = 0.
..
..
..
..
..
..
..
..
..
..
..
..
..
..
..
..
..

Generation = 20, Population = 0.
..
..
..
..
..
..
..
..
..
..
..
..
..
..
..
..
..

Generation = 21, Population = 0.
..
..
..
..
..
..
..
..
..
..
..
..
..
..
..
..
..

Generation = 22, Population = 0.
..
..
..
..
..
..
..
..
..
..
..
..
..
..
..
..
..

Generation = 23, Population = 0.
..
..
..
..
..
..
..
..
..
..
..
..
..
..
..
..
..

Generation = 24, Population = 0.
..
..
..
..
..
..
..
..
..
..
..
..
..
..
..
..
..

Generation = 25, Population = 0.
..
..
..
..
..
..
..
..
..
..
..
..
..
..
..
..
..

Generation = 26, Population = 0.
..
..
..
..
..
..
..
..
..
..
..
..
..
..
..
..
..

Generation = 27, Population = 0.
..
..
..
..
..
..
..
..
..
..
..
..
..
..
..
..
..

Generation = 28, Population = 0.
..
..
..
..
..
..
..
..
..
..
..
..
..
..
..
..
..

Generation = 29, Population = 0.
..
..
..
..
..
..
..
..
..
..
..
..
..
..
..
..
..

Generation = 30, Population = 0.
..
..
..
..
..
..
..
..
..
..
..
..
..
..
..
..
..

Generation = 31, Population = 0.
..
..
..
..
..
..
..
..
..
..
..
..
..
..
..
..
..

Generation = 32, Population = 0.
..
..
..
..
..
..
..
..
..
..
..
..
..
..
..
..
..

Generation = 33, Population = 0.
..
..
..
..
..
..
..
..
..
..
..
..
..
..
..
..
..

Generation = 34, Population = 0.
..
..
..
..
..
..
..
..
..
..
..
..
..
..
..
..
..

Generation = 35, Population = 0.
..
..
..
..
..
..
..
..
..
..
..
..
..
..
..
..
..

Generation = 36, Population = 0.
..
..
..
..
..
..
..
..
..
..
..
..
..
..
..
..
..

Generation = 37, Population = 0.
..
..
..
..
..
..
..
..
..
..
..
..
..
..
..
..
..

Generation = 38, Population = 0.
..
..
..
..
..
..
..
..
..
..
..
..
..
..
..
..
..

Generation = 39, Population = 0.
..
..
..
..
..
..
..
..
..
..
..
..
..
..
..
..
..

*** Life<ConwayCell> 7x1 ***

Generation = 0, Population = 7.
*
*
*
*
*
*
*

Generation = 5, Population = 0.
.
.
.
.
.
.
.

Generation = 10, Population = 0.
.
.
.
.
.
.
.

Generation = 15, Population = 0.
.
.
.
.
.
.
.

Generation = 20, Population = 0.
.
.
.
.
.
.
.

Generation = 25, Population = 0.
.
.
.
.
.
.
.

Generation = 30, Population = 0.
.
.
.
.
.
.
.

Generation = 35, Population = 0.
.
.
.
.
.
.
.

Generation = 40, Population = 0.
.
.
.
.
.
.
.

Generation = 45, Population = 0.
.
.
.
.
.
.
.

*** Life<ConwayCell> 11x5 ***

Generation = 0, Population = 14.
.....
.*...
*....
.**.*
..*..
.*.*.
.....
.*...
.***.
.*.*.
.....

Generation = 2, Population = 15.
.....
.....
..**.
.***.
.*.*.
.....
.**..
**...
**...
**...
.....

Generation = 4, Population = 13.
.....
.....
..*..
**.**
**...
.....
***..
..*..
.*...
.*...
.....

Generation = 6, Population = 17.
.....
..*..
.***.
*..*.
*.**.
*..*.
..**.
*..*.
.**..
.....
.....

Generation = 8, Population = 15.
..*..
.*.*.
**.**
*...*
.*..*
.....
..*.*
....*
..*..
.....
.....

*** Life<ConwayCell> 12x6 ***

Generation = 0, Population = 17.
*..*..
.**...
......
*...*.
......
.*.***
*.....
......
...*.*
......
***...
....*.

Generation = 2, Population = 13.
.**...
*.....
.**...
......
....*.
...***
......
......
......
.**...
**....
......

Generation = 4, Population = 14.
......
**....
......
....*.
...*.*
......
...***
......
.*....
*.*...
*.*...
.*....

Generation = 6, Population = 14.
......
......
......
......
...***
...*.*
...***
......
.*....
*.*...
*.*...
.*....

Generation = 8, Population = 14.
......
......
......
....*.
...**.
..**..
...**.
....*.
.*....
*.*...
*.*...
.*....

Generation = 10, Population = 19.
......
......
......
...**.
..*.*.
.**...
..*.*.
..***.
.***..
*.*...
*.*...
.*....

Generation = 12, Population = 14.
......
......
......
..***.
.*..*.
.**...
...*..
...***
......
.*....
*.....
.*....

Generation = 14, Population = 14.
......
......
..***.
..*.*.
.*..*.
.*.**.
......
...**.
...**.
......
......
......

Generation = 16, Population = 17.
......
...*..
.**.**
.**...
.*....
.**.**
..*...
..*.*.
...**.
......
......
......

Generation = 18, Population = 20.
...*..
..***.
.*..*.
*****.
*..**.
.*....
....**
..*...
...**.
......
......
......

Generation = 20, Population = 17.
..*.*.
.**.**
.*..**
**..**
....**
....*.
....*.
......
......
......
......
......

Generation = 22, Population = 11.
.***..
.***..
*.....
..*...
...*..
...**.
......
......
......
......
......
......

Generation = 24, Population = 9.
..*...
...**.
......
..*.*.
..*.*.
..*.*.
......
......
......
......
......
......

Generation = 26, Population = 5.
......
...**.
......
...***
......
......
......
......
......
......
......
......

Generation = 28, Population = 2.
......
......
......
....**
......
......
......
......
......
......
......
......
