29

8 8
7
6 1
6 5
2 0
5 5
5 1
1 4
7 4
1 2

1 7
19
0 0
0 2
0 2
0 1
0 4
0 5
0 4
0 0
0 1
0 2
0 4
0 3
0 6
0 6
0 1
0 4
0 6
0 3
0 6
1 2

6 6
11
2 0
3 2
3 1
4 1
5 5
2 3
3 3
4 0
1 5
1 1
3 2
4 2

9 7
15
7 3
3 3
8 2
0 1
8 6
4 6
0 0
2 3
2 0
1 0
1 5
2 5
6 0
3 1
5 6
3 2

5 8
6
2 1
0 0
1 2
3 2
0 4
2 0
1 2

1 6
8
0 2
0 2
0 2
0 0
0 5
0 2
0 0
0 0
2 2

5 1
8
0 0
2 0
0 0
2 0
1 0
3 0
4 0
4 0
3 2

2 1
1
0 0
3 2

1 3
13
0 0
0 2
0 2
0 2
0 2
0 1
0 1
0 0
0 0
0 2
0 2
0 1
0 1
1 2

4 8
18
0 0
0 6
0 4
2 1
0 3
3 1
0 5
1 1
1 4
2 2
0 7
1 7
2 4
2 2
0 4
3 7
3 3
2 5
3 2

5 3
16
4 2
2 2
0 1
3 1
4 2
4 1
0 2
4 2
1 2
1 0
1 1
1 0
0 0
2 1
0 1
4 2
1 2

1 5
7
0 0
0 0
0 0
0 0
0 1
0 0
0 3
1 2

10 5
5
1 4
3 1
0 0
9 2
6 3
2 2

2 5
10
0 1
0 2
1 0
0 1
0 0
1 3
1 0
1 4
0 3
1 0
4 2

2 2
2
0 1
0 0
4 2

6 1
9
1 0
3 0
5 0
4 0
0 0
3 0
1 0
2 0
0 0
1 2

7 1
10
0 0
3 0
6 0
4 0
2 0
4 0
4 0
4 0
0 0
5 0
4 2

7 10
8
4 7
6 6
2 8
2 0
6 6
0 1
1 1
2 9
4 2

3 6
5
2 1
1 1
1 5
1 4
0 5
2 2

4 3
19
3 0
1 1
3 2
2 0
3 1
2 2
0 0
1 1
3 1
2 0
0 1
1 1
3 0
2 1
3 0
3 2
3 1
0 0
3 2
1 2

5 10
13
0 8
1 7
4 2
4 4
3 1
4 6
0 8
4 0
3 0
1 4
2 4
1 4
3 5
3 2

5 3
6
0 1
3 0
1 0
2 0
3 0
2 1
3 2

3 3
13
2 1
0 1
2 0
2 2
0 1
1 2
1 1
2 2
0 2
0 0
2 0
1 0
0 0
2 2

6 9
3
0 6
3 7
4 1
2 2

2 5
2
1 3
0 1
4 2

4 1
20
2 0
1 0
3 0
0 0
2 0
0 0
1 0
2 0
1 0
2 0
3 0
2 0
3 0
0 0
2 0
0 0
0 0
1 0
2 0
2 0
3 2

7 3
15
1 0
5 2
6 0
0 1
0 1
2 2
2 0
4 1
0 0
0 0
4 2
4 0
5 0
2 0
4 0
2 2

1 5
12
0 2
0 1
0 2
0 2
0 4
0 3
0 3
0 0
0 0
0 1
0 0
0 4
4 2

6 3
5
4 0
5 2
5 2
1 0
4 1
1 2
