*** Life<Cell> 40x43 ***

Generation = 0, Population = 20.
----------------------0--------------------
------------------------------0------------
-------------------------------------------
---------------------0---------------0-----
----------------------------0--------------
-------------------------------------------
------------------------------------------0
----0-----0--------------------------------
-------------------------------------------
-------------------------------------------
-------------------------------------------
-------------------------------------------
-------------------------------------------
-------------------0-----------------------
-------------------------------------------
-------------------------------------------
-------------0-0---------------------------
-------------------------------------------
-------------------------------------------
-------------0-----------------------------
-------------------------------------------
----------------0--------------------------
----0--------------------------------------
-----------0-------------------------------
-------------------------------------------
-------------------------------------------
-------------------------------------------
----------------0--------------------------
-----------------------------0-------------
-------------------------------------------
-------------------------------------------
-----------------------------------0-------
---------------------------------0---------
-------------------------------------------
-------------------------------------------
-------------------------------------------
--------------------0----------------------
-------------------------------------------
-------------------------------------------
-------------------------------------------

Generation = 112, Population = 109.
...............-.....-...........-...-.-..-
...........................................
...........................................
.........................................**
..........................**.............**
.........................*..*..............
..........................**.....-.........
..........**...............................
..........**............................-..
.......-...................................
........-..................................
...........................................
-..*.....................................*0
...*....................................***
...*...................................*..*
......................................***..
..............................***.....*.***
................................*....*...**
..............................*..*.***...**
.**............................****..*..*..
.**............................*.*...*.**..
.............................**.**.**..**..
......-......................**...*........
...........................................
...........................................
..............**...........................
..............**...........................
...........................................
...........................................
...........................................
...........................................
.............................**............
.............................*..****.......
..........*....................****.*......
..........**.........**........*....*......
..**.....*.*.........**.........****.......
..**.............................*....-....
...........................................
...................................0......1
...................................-....---

Generation = 224, Population = 131.
...............-.....-...........-...-.-..-
...........................................
...........................................
.........................................**
..........................**.............**
.........................*..*.........*....
..........................**.....-...*.*...
..........**........................*...*..
..........**.......................*...*1..
.......-...........................****.*..
........-.........................*........
..................................****...**
-..*...............................*.....**
...*...............................**....**
...*................................*.****.
.....................................****..
......................................**...
...........................................
...........................................
.**........................................
.**........................................
...............................***.........
......-........................*...........
...............*.................*.........
..............*.*...............**..***....
..............*.*............**.....***....
...............*....................**.....
......................................*....
..........**.......**................*.....
.........*..*.....*..*......*......*.*.....
..........**.......**......*.*.....**......
...........................*.*.............
...............*............*....*.........
..............*.*...............*.*........
..............*.*....**.........*.*........
..**...........*.....**..........*...**....
..**.................................**....
...........................................
...................................0.......
...................................-....-.-

*** Life<Cell> 13x50 ***

Generation = 0, Population = 19.
------------------0------------------------------0
----------------0-------------0-------------------
---------------0-------------------0--------------
-------0--------------0---------------------------
-----------------------0--------0-----------------
------------------------------------------0-------
--------------------------------------------------
------0-------0---------------------0-------------
-----------------------------------------0--------
---------------------------------0----------------
------------------0-------------------------------
--------------------------------------------------
--------------------0----------------------------0

Generation = 27, Population = 229.
.-..**...--.................*-*.***.***..-.0-0**.0
..-**.-11-...*.****-*....-.*..1*.*....-****-.-11.-
...-..**-...1**.....**..-..*......***.**.*-..*-**.
*..**....-...**--.***..***..***....****...*1.0.0.*
**.-..*.**-..-.........***.*...........-*...*.**10
0*..*.*...*..-1..*......*.*-.*......****.1..*.1..-
*.*.*.**...-..***...**.*.-....**....*....*..*..-*-
*-*.*.*..1*.***1........*0...........*-1**..-.-1-*
0--.-.....-.***...-.*.*-.*..*....--.*.......*-*..*
..*..**.-...1......-*-**.*..*.**....***.-.*.....-.
-.....-............***....*-*-******-.*.*...*.*..*
*....**.***.....**..00...-...*1*...-..*.**...1...*
.****..-***-....**...-..**.*.**0-.1***.**...1.*1**

Generation = 54, Population = 82.
.-....**.................................-.-.....-
......**.................-............*..........-
...-........................*..**...**.**.........
................-................*..**.**.........
..........-.................*..........**........-
.............-...............**.*.................
...............***.....................*.......**.
.-....**.....................*........*.*.....*..*
.....*.*......*...*........*..**..*...*.*.....*.*.
**...**.-.....*...*............*.**.****.......*..
**...***...........................***............
.....**........***........*.....*..1.*............
...........................*.**-............-.....

Generation = 81, Population = 39.
.-....**.................................**......-
......**................................*..*.....-
...-....................................*.*.......
................-......*..*..............*........
..........-............*...*.....................-
.............-.............*..**..................
..............................**...............**.
.-.........*..............**..................*..*
...........*..................**..............*.*.
**.........*....................*..............*..
**................................................
..................................................
...............................-............-.....

Generation = 108, Population = 31.
.-....**.................................**......-
......**................................*..*.....-
...-....................................*.*.......
................-........................*........
..........-......................................-
.............-................**..................
.............................*..*..............**.
.-............................**..............*..*
..........***.................................*.*.
**.............................................*..
**................................................
..................................................
...............................-............-.....

Generation = 135, Population = 31.
.-....**.................................**......-
......**................................*..*.....-
...-....................................*.*.......
................-........................*........
..........-......................................-
.............-................**..................
.............................*..*..............**.
.-.........*..................**..............*..*
...........*..................................*.*.
**.........*...................................*..
**................................................
..................................................
...............................-............-.....

Generation = 162, Population = 31.
.-....**.................................**......-
......**................................*..*.....-
...-....................................*.*.......
................-........................*........
..........-......................................-
.............-................**..................
.............................*..*..............**.
.-............................**..............*..*
..........***.................................*.*.
**.............................................*..
**................................................
..................................................
...............................-............-.....

Generation = 189, Population = 31.
.-....**.................................**......-
......**................................*..*.....-
...-....................................*.*.......
................-........................*........
..........-......................................-
.............-................**..................
.............................*..*..............**.
.-.........*..................**..............*..*
...........*..................................*.*.
**.........*...................................*..
**................................................
..................................................
...............................-............-.....

*** Life<Cell> 46x47 ***

Generation = 0, Population = 16.
----------------------0------------------------
-----------------------------------------------
-----------------------------------------------
-----------------------------------------------
-0------------------------0----------------0---
-----------------------------------------------
-----------------0-----------------------------
-----------------------------------------------
-----------------------------------------------
-----------------------------------------------
-----------------------------------------------
----------------------------0------------------
-----------------------------------------------
-----------------------------------------------
-----------------------------------------------
-----------------------------------------------
-----------------------------------------------
-----------------------------------------------
-----------------------------------------------
-----------------------------------------------
-----------------------------------------------
-----------------------------------------------
-----------------------------------------------
-----------------------------------------------
---------------------------0------0------------
-----------------------------------------------
----------0------------------------------------
-----------------------------------------------
----------------0------------------------------
-----------------------------------------------
-----------------------------------------------
------------------0----------------------------
----------------------------------------------0
-----------------------------------------------
-----------------------------------------------
-----------------------------------------------
-----------------------------------------------
-----------------------------------------------
-----------------------------------------------
-----------------------------------------------
-----------------------------------------------
-----------------------------------------------
-----------------------------------------------
---------------------------------0-------------
-----------------------------------------------
---------------0-----0------------------0------

*** Life<Cell> 30x10 ***

Generation = 0, Population = 19.
-------0--
-0----0--0
----------
----------
------0---
---0---0--
----------
0---0-----
----------
------0---
----------
----------
---------0
----------
------0---
-0-------0
----------
---0-----0
----------
----------
----------
----------
--0-------
----------
----------
----0-----
----------
----------
---------0
----------

*** Life<Cell> 40x2 ***

Generation = 0, Population = 19.
--
--
--
00
00
-0
--
0-
--
--
-0
--
0-
--
--
--
-0
-0
0-
--
--
-0
--
--
--
--
--
--
0-
-0
--
--
--
--
00
--
00
--
0-
--

*** Life<Cell> 48x16 ***

Generation = 0, Population = 18.
----------------
----------------
----------------
--------------00
0---------------
----------------
----------------
--------------0-
--------0---0---
----------------
--0-------------
----------------
----------------
----------------
----------------
----------------
----------------
----------------
----------------
----------------
----------------
----------------
----------------
----------------
----------------
----------------
----------------
----0-----------
----------------
-0--------------
----------------
----------------
----------------
----------------
---00-----------
0---------------
----------------
---------------0
----------------
----------------
----------------
0---------------
----------------
----------------
-------0--------
----------------
----------------
---0-----00-----

Generation = 180, Population = 45.
.............-..
................
...*.........**.
...*.........*.*
...*..........*.
................
................
...............-
................
................
................
................
................
................
................
................
................
**..............
**..............
...........**...
...........**...
.**.............
.*...*..........
.*...*..........
......*.........
....*...........
**..**.*........
*..*..*.........
*.*............-
................
..............-1
................
................
................
................
................
................
................
................
.............**.
...-.........**.
................
................
................
-...............
.**.............
*..*............
.**.............

*** Life<Cell> 47x46 ***

Generation = 0, Population = 19.
----------------------------------------------
-------------------------0--------------------
--------0------------------------0------------
----------------------------------------------
-----------------------0----------------------
----------------------------------------------
----------------------------------------------
----------------------------------------------
----------------------------------------------
----0-----------------------------------------
----------------------------------------------
----------------------------------------------
----------------------------------------------
----------------------------------------------
--------------0-------------------------------
------------------------------0---------------
---------------0-----------0------------------
----------------------------------------------
----------------------------------------------
----------------------------------------------
----------------------------------------------
----------------------------------------------
----------------------------------------------
----------------------------------------------
----------------0-----------------------------
----------------------------------------------
----------------------------------------------
----------------------------------------------
-0--------------------------------------------
----------------------------------------------
---------------------------------------------0
------------------------------------------0---
----------------------------------------------
-----------0-------------0--------------------
----------------------------------------------
---------------0------------------------------
----------------------------------------------
----------------------------------------------
----------------------------------------------
---------------------------0------------------
----------------------------------------------
----------------------------------------------
----------------------------------------------
----------------------------------------------
--------------------------0-------------------
----------------------------------------------
----------------------------0-----------------

Generation = 152, Population = 169.
..-....-......................*....*.*........
....-.-......................*.*...*.*........
.............................*..**............
..............................*.**..****......
.................-.-...-.......**...*.........
...............................**......*......
...............................***..*......**.
...............................***.........**.
.....................................**.......
..............................................
..............................................
..............................................
...............................**.............
..........*...................*..*...........-
.........*.*..-................**.............
.........*.*..................................
..........*...............**..................
.........................*..*........*........
....................**...*...*..******....**..
....................**......**.*******....**..
...........................*.***..............
..............................................
........................*...................*.
........................*.**...............*.*
.........................**...................
...........***.............*..................
......................*.*.....................
..............*.....*...*............*........
..........*............*............*.*....**.
.............*..........***.........*.*....**.
..........**............*.*..........*........
.....................*..**...**..........*....
......................***...*..*........*.*...
.......................***...**........*..*...
...............*.........**.............**....
............*...*.......*..*....**............
........**..**.***.......**....*..*...........
........**......................**............
..............................................
-......................................***....
..............................................
..............................................
..............................................
..............................................
..............................................
..............................................
..............................................

*** Life<Cell> 11x39 ***

Generation = 0, Population = 19.
----------------------0-------------0--
---------0--------------0-----------0--
0------------------0-----------------0-
------------0------0-----0-------------
------------0--------------------------
---------------------------------------
-----------------------0---------0-----
---------------------------------------
------0-------------0------------------
-------------0-------------------------
0------------0-------------------------

Generation = 69, Population = 56.
...........**.............*............
...........*.*...*....**.***..**.......
............*...**...*......*.**..**...
..............***....*....**......**...
..............***....*....*.....*..*...
..............**..*....*.*......*....*.
................****................*..
.................*...................*.
.................................*.....
-..................................***.
.......................-.............*.

Generation = 138, Population = 15.
.......................................
.......................................
....................................**.
....................................**.
.......................*...*...........
.......................*..*.*..........
.......................*...*...........
.......................................
.......................................
-..........................**..........
.......................-...**..........

Generation = 207, Population = 15.
.......................................
.......................................
....................................**.
....................................**.
...........................*...........
......................***.*.*..........
...........................*...........
.......................................
.......................................
-..........................**..........
.......................-...**..........

*** Life<Cell> 8x5 ***

Generation = 0, Population = 15.
-0-0-
000--
-00-0
-----
-----
-0--0
--000
0-0--

Generation = 87, Population = 8.
.....
.....
**...
**.-.
.....
**...
**...
.....

Generation = 174, Population = 8.
.....
.....
**...
**.-.
.....
**...
**...
.....

*** Life<Cell> 35x48 ***

Generation = 0, Population = 16.
------------------------------------------------
----------0-------------------------------------
------------------------------------------------
-----------------------0------------------------
------------------------------------------------
------------------------------------------------
---0--------------------------------------0-----
----------------------0----------------0--------
------------------------------------------------
--------0-------------------0-------0-----------
------------------------------------------------
------------------------------------------------
------------------------------------------------
------------------------------------------------
------------------------------------------------
------------------------------------------------
----------------------------------------------0-
------------------------------------------------
------------------------------------------------
------------------------------------------------
------------------------------------------------
-----------------------------------0------------
------------------------------------------------
------------------------------------------------
----------------0----------0--------------------
------------------------------------------------
------------------------------------------------
-----------------------------------0------------
--0-------------------0-------------------------
------------------------------------------------
------------------------------------------------
------------------------------------------------
------------------------------------------------
------------------------------------------------
------------------------------------------------

Generation = 144, Population = 96.
................................................
....**..........................................
...*..*............*..**...*.........-..........
....**.....................*....................
..................*........*....................
...................*........................**..
...................*........................**..
................................................
................................................
................................................
................................................
....................................***.........
...................................*..*.........
....................*.............**...*.....**.
.....................*................*......**.
..............**...*..*..........*.**...........
.............*.*......*.........**.............-
............***.....*..*........................
............**.......*.*........................
.......**............***........................
.......**.**...*................................
..........*..**.................................
..........*.**.........**........**.............
...........**..........**........**............-
................................................
...............-................................
.*..............................................
*.*..-........................................-.
*..*............................................
.**......-......................................
................................................
................................................
.......**.......................................
.......**..**..................................-
...........**...................................

*** Life<Cell> 3x20 ***

Generation = 0, Population = 15.
---0-00---0--00----0
0------------------0
--0-----000-----00--

Generation = 35, Population = 0.
....................
...........-..-.-...
....................

Generation = 70, Population = 0.
....................
...........-..-.-...
....................

Generation = 105, Population = 0.
....................
...........-..-.-...
....................

Generation = 140, Population = 0.
....................
...........-..-.-...
....................

Generation = 175, Population = 0.
....................
...........-..-.-...
....................

Generation = 210, Population = 0.
....................
...........-..-.-...
....................

Generation = 245, Population = 0.
....................
...........-..-.-...
....................

Generation = 280, Population = 0.
....................
...........-..-.-...
....................

*** Life<Cell> 4x29 ***

Generation = 0, Population = 16.
---0--------------0-0-------0
-------0------0------0-0--0--
-0------------0---0----------
--00-0--------------------0--

Generation = 14, Population = 43.
-.1*.-*.--***1.*.1...**-*0.-.
.-...*.*.*...*.*.*..*...*.0..
.0-*1.1*-..-.-.0.-.-*1.0*1-.-
.-..-----1***-...****...-**-.

Generation = 28, Population = 27.
-...*..............**....**-.
.-.***.........*.*.**.....*..
.1**.**......-...*......**..-
.-..............******.......

Generation = 42, Population = 10.
-.................***........
.-...............*...*.......
.............-...*...*......-
.-................***........

Generation = 56, Population = 10.
-.................***........
.-...............*...*.......
.............-...*...*......-
.-................***........

Generation = 70, Population = 10.
-.................***........
.-...............*...*.......
.............-...*...*......-
.-................***........

Generation = 84, Population = 10.
-.................***........
.-...............*...*.......
.............-...*...*......-
.-................***........

Generation = 98, Population = 10.
-.................***........
.-...............*...*.......
.............-...*...*......-
.-................***........

Generation = 112, Population = 10.
-.................***........
.-...............*...*.......
.............-...*...*......-
.-................***........

Generation = 126, Population = 10.
-.................***........
.-...............*...*.......
.............-...*...*......-
.-................***........

Generation = 140, Population = 10.
-.................***........
.-...............*...*.......
.............-...*...*......-
.-................***........

Generation = 154, Population = 10.
-.................***........
.-...............*...*.......
.............-...*...*......-
.-................***........

Generation = 168, Population = 10.
-.................***........
.-...............*...*.......
.............-...*...*......-
.-................***........

Generation = 182, Population = 10.
-.................***........
.-...............*...*.......
.............-...*...*......-
.-................***........

Generation = 196, Population = 10.
-.................***........
.-...............*...*.......
.............-...*...*......-
.-................***........

Generation = 210, Population = 10.
-.................***........
.-...............*...*.......
.............-...*...*......-
.-................***........

Generation = 224, Population = 10.
-.................***........
.-...............*...*.......
.............-...*...*......-
.-................***........

Generation = 238, Population = 10.
-.................***........
.-...............*...*.......
.............-...*...*......-
.-................***........

Generation = 252, Population = 10.
-.................***........
.-...............*...*.......
.............-...*...*......-
.-................***........

Generation = 266, Population = 10.
-.................***........
.-...............*...*.......
.............-...*...*......-
.-................***........

Generation = 280, Population = 10.
-.................***........
.-...............*...*.......
.............-...*...*......-
.-................***........

*** Life<Cell> 48x24 ***

Generation = 0, Population = 18.
-------0----------------
------------------------
------------------------
------------------------
------------------------
------------------------
------------------------
------------------------
---------------0--------
------------------------
------------------------
---------------0--------
------------------------
------------------------
------------------------
------------------------
------------------------
---0--------------------
--0---------------------
------------------------
------------------------
------------------------
------------------------
------------------------
----------------------0-
------------------------
------------------------
------------------------
------------------------
---------------------0--
------------------------
------------------0-----
------0------0----------
------------------------
-------------------0----
-------------0----------
------------------------
----0-------------------
------------------------
-----0------------------
------------------------
------------------------
-------0----------------
------------------------
------------------0-----
---0--------------------
-----------------0------
------------------------

Generation = 56, Population = 163.
......*...........**....
.....**........**.......
....**.........**...*...
....**.......**.....*...
..........**.*..........
....**.*..............-.
..*....*.**........*....
-.*....*.......*.***....
..*..*.......*****......
...*...........*...***..
.....................*..
........*...........*.*.
...**..**...............
...*.*.**...****........
...........**..*........
........*...............
.........***.****.......
.....*...*.*.....*......
........*...**.**.......
.....***.......**.......
........................
........................
......................1.
........................
.......*.............**.
.*...**.*..............-
.**.*.*.*...............
........................
.*.....*.**.............
.****....**.............
......*..*..............
.......*................
........................
..................-.....
........***.............
..............**..*.*...
..............****...*..
.................*....*.
-.................*..*..
.........*..*.....*.**..
......*.......*..*..*..-
**...*.*.*.....*****....
**...*.**.**......*.....
......*........*........
........................
...**...................
-.*.*...................
.-.*...........-........

Generation = 112, Population = 106.
........................
.....................*..
....................***.
...................*...*
....................**.*
.....................***
........................
........................
........................
........................
........................
.............***........
............*...*.......
..**.............*......
.***........*....*......
........................
..............**.*.*....
......*.*......*...*....
......*..*......*.*.....
......*.*.....*.........
........................
........................
........................
..............***..***..
..............*..**...*.
..............*..**....*
...............*.*.*....
...................*....
........................
....................**..
***...................*.
........................
........................
........................
.***......*.*..*.**.....
.........*****....*.....
.........*....****......
.........*..**..........
-.........*..**.........
.............****.......
.......................-
**......................
**......................
........................
............**..........
...**.......**..........
-.*.*...................
.-.*...........-........

*** Life<Cell> 4x44 ***

Generation = 0, Population = 15.
--0--0---------0--------0-----------------00
-----0-------------0-------0------0---------
-----0-0---0--------------------------------
-----0-------------0------------------------

*** Life<Cell> 8x3 ***

Generation = 0, Population = 15.
0--
--0
0--
-00
000
-00
-00
000

Generation = 8, Population = 10.
1-.
1-1
..-
.-*
.**
-1*
-*1
..-

Generation = 16, Population = 3.
...
..1
..-
.-.
...
-..
1.1
..-

Generation = 24, Population = 3.
...
..1
..-
.-.
...
-..
1.1
..-

Generation = 32, Population = 3.
...
..1
..-
.-.
...
-..
1.1
..-

Generation = 40, Population = 3.
...
..1
..-
.-.
...
-..
1.1
..-

Generation = 48, Population = 3.
...
..1
..-
.-.
...
-..
1.1
..-

Generation = 56, Population = 3.
...
..1
..-
.-.
...
-..
1.1
..-

Generation = 64, Population = 3.
...
..1
..-
.-.
...
-..
1.1
..-

Generation = 72, Population = 3.
...
..1
..-
.-.
...
-..
1.1
..-

Generation = 80, Population = 3.
...
..1
..-
.-.
...
-..
1.1
..-

Generation = 88, Population = 3.
...
..1
..-
.-.
...
-..
1.1
..-

Generation = 96, Population = 3.
...
..1
..-
.-.
...
-..
1.1
..-

*** Life<Cell> 48x13 ***

Generation = 0, Population = 17.
-----0-------
-------------
-----0-------
-------------
-------------
-------------
-------------
-------------
-------------
------0------
-------------
--0----------
-------------
-------------
-------------
-------------
-------------
-------------
--00---------
-------------
-------------
-------------
-------------
-------------
--0----------
-------------
-------------
-------------
-------------
----0--------
-------------
-------------
-----0-------
-------------
-------------
-0-----------
-------------
-------0--0-0
-------------
-------------
-------------
-------------
-------------
-------------
-----0-----0-
------0------
-------------
--0----------

Generation = 115, Population = 16.
.............
.............
.............
.............
.............
.............
.............
........-....
-............
.............
.............
.............
.....**......
....*..*.....
.....*.*.....
......*......
.............
.............
.............
.............
.............
.............
.............
.............
.............
.............
**...........
**...........
.............
.............
.............
.............
.............
.............
.............
.......**....
.......**....
.............
.............
.............
.............
.............
.............
.............
.............
.............
.............
..1-.........

*** Life<Cell> 7x44 ***

Generation = 0, Population = 18.
--00----------------------------------------
-------0--------00--------------------0-----
---------------------------------0----------
-0----------0---------------0---------------
----------0----------0----0---0-------------
0------------0-------------0----------------
-----------------------------0--------------

Generation = 29, Population = 97.
........*.-..........********...*...***..*-1
....**-*..*..*......*........*.*..**...*0.-1
....**.**.-***.-......*.*.-.**.*........1-**
...*.*.**.*-....*.**..*.....**...*1...*....0
..**........*.**.**......*.*.*.*.*.-.**.....
.*.*......*.**......**....*..*..**....-...*.
..*****...1.......***................****...

*** Life<Cell> 45x35 ***

Generation = 0, Population = 17.
-----------------------------------
-----------------------------------
-----------------------------------
-------0---------------------------
-----------------------------------
-----------------------------------
-----------------------------------
---------------------------------0-
--------------------------0--------
-----------------------------------
-----------------------------------
---0-------------------------------
-----------------------------------
-----------------------------------
-----------------------------------
--0-------------------0------------
-----------------------------------
-----------------------------------
-----------------------------------
-----------------------------------
-----------------------------------
----------------0------------------
----------------0------------------
----------------------------------0
-----------------------------------
-----------------------------------
-----------------------------------
-----------------------------------
-----------------------------------
-----------------------------------
-----------------------------------
-----------------------------------
-----------------------------------
-----------------------------------
-------------------------------0---
--------------------------------0--
-----------------------------------
-----------------------------------
-----------------------------------
------------------------0----------
-----------------------------------
---------------------------------0-
----------------0-----------0------
-----------------------------------
--------0-----0--------------------

Generation = 22, Population = 613.
00----0---------1---1----10--------
1---0------0--0--1----*-1-0------00
0-*---0-0-0---0-.00-*-*-11---------
..*1.-0--0--10-0-.-1-....1-0---01-*
00.-.0----------*---.--0..-.0------
-0..*---0-1--11-*.-1***-*0*---0----
0--11-1-----*-1*1-*-*....0*.01-00-1
--..*1-0**1-00-*-*.*......11..-****
--*-1--10---0*-1.-.**.*..11-.1**---
-..*1..1-10-*--...-*.-*..0.*.0*0.-1
-1.-.0*.--0--..0.1-.-*.---***0*--.1
1..*.*---*-....*.--..--1.-.0*---..-
.*-*01*1-1--..1-.--...0.*.*..-1-*.*
-1..****-..*..*-*-.--**00*.1*-00*1*
*-1.-.*0-*.-...1**...--***.***.**.*
.....***.11*0*....*1.-.-.-*1..-...*
*-1*-..-..-.1-*.-.-.*.-1--*-*-.-*.*
0.*.---1**1-.......1....*-*-**1*1.*
10.0.*-.*...**.....*-.-..1**.-.-.**
---*0-0*.-.-......**..1..0*..-1*-..
*-**.-1-.-.....*..**...**-1-10-1-.1
-1*.*-.-.....-.*.*.1-.....0-**....*
*1--*1*1-0..**.*-**......1....-1*.-
*1.10*.-*01*.*.*.1..*-.-.**-.-*1-.*
.-1*0-0-*-*1.1.*.*11*-**...*-.-*---
--.*-*11**-***.*.*..*-1..1*0--01.0-
-1-11-*0*..-.*-*****.0...*.10-*10-1
---*-00**.-**-.*.1*......0*--1-1-*-
0-11*---.-..*-.-.-*-*..1-*-1.1-0011
0-110---1*.*...**..*.01-1*--.----.-
--0-1-1-0-11...***-1-***-.0-.-*1.--
011-01-1-**-.*.0.*.1.-..*..-.-.-***
----0-1-0--1-1**-*.-*--*.-.-.*-.1.*
0-00--0-001--1--***1*-*1..*0..-**.*
------0-*11--*.*....-.1-*-1.*.1...*
0---0-0---0---.-*-*--**0*-.*.*....*
0--------0--.0.-..-..10**1**..1.-..
--0-0---110*1.0.1.*.1*-*1...*...*.*
--0---0-00*-.-*.*-...-.-.1......*.-
--0--10--*.-.........**..11........
0-----1-0-.1.-.0.-...*.**.**.*-....
----1--010-*-*1***.*...*..-.**...-1
----0-0-.11-*****--*.*0*......0....
------1-.10*--*.....-.-.*..-..**...
0-0--------10-.-*-**.***....**---..

Generation = 44, Population = 357.
-.....**.0-.....-..-....-.****.****
.**..**..1-*.1..........*...*......
*.*..*..*...**.-........*...*.**...
.......*.*-.........-.....*...***..
....*............................-.
.*..........****.......-...*1......
*..**............*.............-.-.
*..**.....*.......*...........-....
**....**.*.......*.............**..
......*....1*.-*..............***1.
......**.*.*...*....-..........*...
.......*.*.*..*........-...-.......
.......*.**.**.....................
......*..........-.................
......*..*.........*........**..***
.....*....*......**.*....**...**..*
...*****.***...**.***.......*****.*
..*.**1*..**.**.......*.....*...*.*
..*.......*..*......*.*...**.......
..*..*..*....*.***...*...**..**....
...***...*.*..**....**....*.***....
.........***.........**....**......
......................*.........*..
.**.-..........................****
*..*...-..***.....................*
..*.......**.................*.**.*
.....-.-..***........-......**.*...
*.*......*...................*....*
*.*......*...............**....*.*.
.-...........................*..*..
................**.*..*..**..*.*...
..............*..*....*.*****..*...
............*.*....*....*...*......
.-.........*..**..*..*..*...*......
.....-.***.*......*...*.*...*......
...1..*.***.-.....**....**.*.......
..****1*.*........**...*..*..*...*.
..******...........*...*....**...*.
....*****.......*..*..**....**.....
.....*.......***.*.**....-..*..**..
....**.1-...**...............***...
*..*..**..**.......****......*.....
*....***.*.****..**..***...........
*.-*.-..*.1.*...*..***..*..........
.-*-*...*...-...****...............

Generation = 66, Population = 182.
-..............*...-....-.......**.
..*.***......**.*...............**.
..*.*****.....***..................
..*....*.**....*....-..............
.....*..*........................-.
............*..........1***..*.....
...**.**...............*..*..***.-.
....*...**.............***...***...
.....**.**.............*..*........
.......................****..*.*...
....................-...*....*.*...
.......................1..***.*....
..............*...........**.......
..............*....................
..............*.................**.
**........................**..*..*.
*........................*..*****..
......................**.*.*.***...
.....................*.**.*........
.....................*.............
.....................***...........
...*...............................
.................................*.
......**.....*.*.............**.*.*
.....**.....*...........***....**.*
......*..........*.......*.....***.
.....-..*..**.....*..-.............
......**.**......*.................
........*..***.***.................
.-.................................
...................................
.............**....................
..........**.**....................
.-.........*.*.....................
.....-.....**...**.................
...........**.*.*..................
......-.....*..**..................
................*..................
...........*...*...................
...........*.**..........-......**.
.............***................**.
...............*...................
...............*...................
...................................
...................................

Generation = 88, Population = 146.
............**.....-....-.......**.
...........*..*.................**.
..........**...*...................
.....*.....*...*....-..............
....***..**....*.................-.
....**.******..*...................
.....*...**.*...*................-.
.......**....*..*...........*......
......**......***...........**.....
.............................**....
....................-..............
...................................
...................................
........................*.....***..
.......................*.*....***..
**....................*..*..**..*..
**.....................*....*......
.............**.............***....
....**......****...................
...*..*.....*****..................
..**...*....***..*.................
........*....****..................
.*...*..*.....*.....**.............
..**.*..*...........**.............
......**.................**........
.............**..........*.*.......
.......*...................*.......
......*.*......*...................
.....*...*.*...*...................
.-...*..*..*..*....................
.......*...*.......................
...........*.*.....................
.............*.....................
.-........*..*.....................
.....-....*.*......................
..........**.......................
......-............................
...................................
...................................
.........................-......**.
................................**.
...................................
...................................
...................................
...................................

Generation = 110, Population = 113.
.........*.........-....-.......**.
........**......................**.
...................................
.......*............-..............
.......***.......................-.
...................................
.................................-.
............................**.....
..............*............*..*....
.............*.*............*.*....
.............*..*...-........*.....
..............**...................
...............................**..
...............................**..
...................................
..*................................
.**........................**......
*..*..**...................**......
.**..**.**.........................
...................................
......*.**.........................
.....**..*.........................
.*.*...**...........**.............
*...*..***..........**.............
*...*....*...............**........
*.****...................*.*.......
**..**....................*........
....**.............................
......*............................
.-..***............................
....**.............................
...................................
...........**......................
.-........****.....................
.....-...*..***....................
..........***..*...................
......-....****....................
.............*.....................
...................................
.........................-......**.
................................**.
...................................
...................................
...................................
...................................

Generation = 132, Population = 58.
........*..........-....-.......**.
.......*.*......................**.
........*..........................
....................-..............
.................................-.
...................................
.................................-.
............................**.....
..............*............*..*....
.............*.*............*.*....
.............*..*...-........*.....
..............**...................
...............................**..
.....*.........................**..
......*............................
.....*.............................
....**.....................**......
...........................**......
....***............................
...................................
...................................
...................................
........**..........**.............
........***.........**.............
........**...............**........
.........................*.*.......
..........................*........
...................................
...................................
...................................
...................................
...................................
...................................
.-.................................
.....-.............................
...................................
......-............................
...................................
...................................
.........................-......**.
................................**.
...................................
...................................
...................................
...................................

Generation = 154, Population = 62.
........*..........-....-.......**.
.......*.*......................**.
........*..........................
....................-..............
.................................-.
...................................
.................................-.
............................**.....
..............*............*..*....
.............*.*............*.*....
.............*..*...-........*.....
..............**...................
...............................**..
...............................**..
...................................
.....*.............................
....*.*....................**......
....*..*...................**......
.....**............................
...................................
........***........................
...................................
......*.....*.......**.............
......*.....*.......**.............
......*.....*............**........
.........................*.*.......
........***...............*........
...................................
...................................
...................................
...................................
...................................
...................................
.-.................................
.....-.............................
...................................
......-............................
...................................
...................................
.........................-......**.
................................**.
...................................
...................................
...................................
...................................

Generation = 176, Population = 62.
........*..........-....-.......**.
.......*.*......................**.
........*..........................
....................-..............
.................................-.
...................................
.................................-.
............................**.....
..............*............*..*....
.............*.*............*.*....
.............*..*...-........*.....
..............**...................
...............................**..
...............................**..
...................................
.....*.............................
....*.*....................**......
....*..*...................**......
.....**............................
...................................
........***........................
...................................
......*.....*.......**.............
......*.....*.......**.............
......*.....*............**........
.........................*.*.......
........***...............*........
...................................
...................................
...................................
...................................
...................................
...................................
.-.................................
.....-.............................
...................................
......-............................
...................................
...................................
.........................-......**.
................................**.
...................................
...................................
...................................
...................................

*** Life<Cell> 11x25 ***

Generation = 0, Population = 19.
---------------------0---
---000---0-------------0-
-------------------------
----0----------------0---
0-0------------0------0--
-------------0-----------
---------------0---------
-------------------------
-----0------------0------
-------------------------
----0------00------------

*** Life<Cell> 4x1 ***

Generation = 0, Population = 4.
0
0
0
0

Generation = 42, Population = 0.
.
.
.
.

Generation = 84, Population = 0.
.
.
.
.
